<?xml version="1.0" encoding="utf-8"?>
<Module VenderID="1" ProductCode="10498816" Revision="16842752" IONodeID="e7d40ffa-a3d5-4b59-8b72-1ec23cd10775" DeviceName="N1" SerialNo="0" IsEnabled="1">
  <Feature Values="None" />
  <PdoM PMIndex="6656" PMN="TxSlaves" PMIOD="I">
    <Pdo PID="34570abe-7c6c-49c0-993a-66194cc54db5" Index="24576" SIndex="1" Name="NXUnit0" DSC="" PBit="56" PD="I" PV="H" PBO="0" BTBL="56" LEMI="1" SPId="4a466773-9c0a-44f2-900f-2057ba2b55fc" PDT="ARRAY [0..6] OF BYTE" CipType="None" />
    <Pdo PID="abe98ed5-d868-430e-8cae-df4d0e2b87c5" Index="24576" SIndex="2" Name="NXUnit1" DSC="" PBit="48" PD="I" PV="H" PBO="56" BTBL="48" LEMI="2" SPId="0eeadb28-1624-466c-ac0c-b4a5b3ad0c99" PDT="ARRAY [0..5] OF BYTE" CipType="None" />
    <Pdo PID="98506547-7e7e-40fc-96e8-0770564d441a" Index="24576" SIndex="3" Name="Padding" DSC="" PBit="8" PD="I" PV="H" PBO="104" BTBL="8" LEMI="0" SPId="00000000-0000-0000-0000-000000000000" PDT="ARRAY [0..0] OF BYTE" CipType="None" />
  </PdoM>
  <PdoM PMIndex="5632" PMN="RxSlaves" PMIOD="O">
    <Pdo PID="156f9241-a1e6-494e-a39d-18519d6f9716" Index="28672" SIndex="1" Name="NXUnit0" DSC="" PBit="56" PD="O" PV="H" PBO="0" BTBL="56" LEMI="1" SPId="1033070d-a021-449a-845b-89a8e6c20c39" PDT="ARRAY [0..6] OF BYTE" CipType="None" />
    <Pdo PID="0e7a097f-7918-4ca7-ab78-df3d689027a2" Index="28672" SIndex="2" Name="NXUnit1" DSC="" PBit="48" PD="O" PV="H" PBO="56" BTBL="48" LEMI="2" SPId="3df6995f-0ca4-4f39-bdf0-b10b283ea542" PDT="ARRAY [0..5] OF BYTE" CipType="None" />
    <Pdo PID="048b7d89-93d2-4407-83a8-652e6ab912bb" Index="28672" SIndex="3" Name="Padding" DSC="" PBit="8" PD="O" PV="H" PBO="104" BTBL="8" LEMI="0" SPId="00000000-0000-0000-0000-000000000000" PDT="ARRAY [0..0] OF BYTE" CipType="None" />
  </PdoM>
  <PdoM PMIndex="6657" PMN="TxVariables" PMIOD="I">
    <Pdo PID="47413de0-6040-4b69-95a4-068610732a93" Index="24580" SIndex="1" Name="Safety CPU Status" DSC="Status of Safety CPU Unit for monitoring" PBit="16" PD="I" PV="V" PBO="112" BTBL="16" LEMI="2147483648" SPId="00000000-0000-0000-0000-000000000000" PDT="UINT" CipType="None">
      <SubPort PID="da28e250-cb35-41ba-ad61-3f6b65824a2c" Name="Normal Operating" DSC="Safety program is running without any fault and all safety master connections are established" Offset="0" PD="I" BTBL="1" PDT="BOOL" PV="V" />
      <SubPort PID="8a965f63-499b-478e-ae2e-9194c510243e" Name="Program Operating" DSC="Safety program is running" Offset="1" PD="I" BTBL="1" PDT="BOOL" PV="V" />
      <SubPort PID="806259c1-0765-447c-8039-4aa5cb7d1ba4" Name="Program No Fault" DSC="No system event more than minor fault occurs" Offset="2" PD="I" BTBL="1" PDT="BOOL" PV="V" />
      <SubPort PID="b789da7b-b255-4506-8fce-c1393eab618a" Name="Safety Master Connection Status" DSC="All safety master connections are established" Offset="3" PD="I" BTBL="1" PDT="BOOL" PV="V" />
      <SubPort PID="14934ff8-157b-4a4c-8431-d3edd290ca9b" Name="Reserved" DSC="" Offset="4" PD="I" BTBL="12" PDT="BOOL" PV="H" />
    </Pdo>
  </PdoM>
  <PdoM PMIndex="5633" PMN="RxVariables" PMIOD="O" />
</Module>